Capítulo 1: Introdução ao R, RStudio e RMarkdown
…
No código acima, carregamos diferentes pacotes do R que estão associados às análises espaciais e geocomputacionais. Ao longo do curso, as exploraremos à medida que forem requeridas em nossas análises.

1.4 Operações básicas e visualização de recursos

Neste ponto, vamos explorar algumas funções do R que são úteis nas análises espaciais. A primeira delas é o carregamento do conjunto de dados vetoriais, normalmente estruturados em tabelas (dados tabulares). Para o carregamento usamos a função read_excel() e criaremos um conjunto de dados usando um nome de identificação seguido de <- para que R interprete a criação do conjunto. Baixamos os dados tabulares populacionais do Estado de São Paulo para a análise; o arquivo tem o nome populacao01.xls e foi indexado na pasta de trabalho.

library(readxl)

## Warning: package 'readxl' was built under R version 4.3.2

populacao01 <- read_excel("C:/ARQUIVOS COMPUTADOR/DOUTORADO/EBOOK PROCESSAMENTO DIGITAL DE IMAGENS/populacao01.xls")

populacao01

## # A tibble: 645 × 10
##    municipio       `Área Urbanizada` `Área não Urbanizada` `Área Urbana Isolada`
##    <chr>                       <dbl>                 <dbl>                 <dbl>
##  1 ADAMANTINA                  31713                    55                   180
##  2 ADOLFO                       3155                     0                    45
##  3 AGUAÍ                       27261                   715                  1025
##  4 ÁGUAS DA PRATA               5513                     0                  1258
##  5 ÁGUAS DE LINDÓ…              6886                 10225                     0
##  6 ÁGUAS DE SANTA…              3681                     0                   578
##  7 ÁGUAS DE SÃO P…              2707                     0                     0
##  8 AGUDOS                      32173                   659                   161
##  9 ALAMBARI                     3036                     0                   636
## 10 ALFREDO MARCON…              2690                   565                     0
## # ℹ 635 more rows
## # ℹ 6 more variables: `Área Rural (Exceto Aglomerado)` <dbl>,
## #   `Aglomerado Rural de Extensão Urbana` <dbl>,
## #   `Aglomerado Rural Povoado` <dbl>, `Aglomerado Rural Núcleo` <dbl>,
## #   `Outros Aglomerados Rurais Raros` <dbl>,
## #   `Código da Unidade Geográfica` <dbl>

Com os dados tabulares carregados em um objeto no R (dataframe), podemos realizar várias operações, desde a seleção de linhas e colunas, até a criação de novos conjuntos a partir desse.

#Criando novos conjuntos selecionando colunas específicas do conjunto
area_urbanizada = populacao01 [, c(1,3,10)] #selecionamos as colunas 1,3,10 do conjunto populacao01 e criamos um novo conjunto "area_urbanizada"
area_urbanizada

## # A tibble: 645 × 3
##    municipio              `Área não Urbanizada` `Código da Unidade Geográfica`
##    <chr>                                  <dbl>                          <dbl>
##  1 ADAMANTINA                                55                        3500105
##  2 ADOLFO                                     0                        3500204
##  3 AGUAÍ                                    715                        3500303
##  4 ÁGUAS DA PRATA                             0                        3500402
##  5 ÁGUAS DE LINDÓIA                       10225                        3500501
##  6 ÁGUAS DE SANTA BÁRBARA                     0                        3500550
##  7 ÁGUAS DE SÃO PEDRO                         0                        3500600
##  8 AGUDOS                                   659                        3500709
##  9 ALAMBARI                                   0                        3500758
## 10 ALFREDO MARCONDES                        565                        3500808
## # ℹ 635 more rows
…
## [1] NA

ncell(area_urbanizada)

## [1] 1935

Essas informações são úteis para reconhecer que tipo de conjunto de dados estamos trabalhando e como as informações nele podem ser usadas para outras análises, o que chamamos de análise exploratória. Agora vamos carregar o outro conjunto que já está no diretório, cujo arquivo recebe o nome de localsp.xls. Criaremos o conjunto local sp para analisar as informações.

library(readxl)
localsp <- read_excel("C:/ARQUIVOS COMPUTADOR/DOUTORADO/EBOOK PROCESSAMENTO DIGITAL DE IMAGENS/localsp.xls")

localsp

## # A tibble: 2,142 × 21
##       ID CD_GEOCODIGO TIPO   CD_GEOCODBA NM_BAIRRO CD_GEOCODSD CD_GEOCODDS
##    <dbl>        <dbl> <chr>        <dbl> <chr>           <dbl>       <dbl>
##  1 15316      3.50e14 URBANO          NA <NA>      35001050500   350010505
##  2 15317      3.50e14 URBANO          NA <NA>      35001050500   350010505
##  3 15318      3.50e14 URBANO          NA <NA>      35001050500   350010505
##  4 15319      3.50e14 URBANO          NA <NA>      35001050500   350010505
##  5 15320      3.50e14 URBANO          NA <NA>      35001050500   350010505
##  6 15321      3.50e14 URBANO          NA <NA>      35001050500   350010505
##  7 15322      3.50e14 URBANO          NA <NA>      35002040500   350020405
##  8 15323      3.50e14 URBANO          NA <NA>      35002040500   350020405
##  9 15324      3.50e14 URBANO          NA <NA>      35002040500   350020405
## 10 15325      3.50e14 URBANO          NA <NA>      35003030500   350030305
## # ℹ 2,132 more rows
## # ℹ 14 more variables: NM_DISTRITO <chr>, CD_GEOCODMU <dbl>,
## #   NM_MUNICIPIO <chr>, NM_MICRO <chr>, NM_MESO <chr>, NM_UF <chr>,
## #   CD_NIVEL <dbl>, CD_CATEGORIA <dbl>, NM_CATEGORIA <chr>,
## #   NM_LOCALIDADE <chr>, LONG <dbl>, LAT <dbl>, ALT <dbl>, GM_PONTO_sk <chr>
…
